simulation/qsim/regfile.msim.vcd
$comment
	File created using the following command:
		vcd file regfile.msim.vcd -direction
$end
$date
	Wed Oct 12 16:45:03 2022
$end
$version
	ModelSim Version 10.5b
$end
$timescale
	1ps
$end

$scope module reg_32_vlg_vec_tst $end
$var reg 1 ! clk $end
$var reg 1 " clr $end
$var reg 32 # d [31:0] $end
$var reg 1 $ en $end
$var wire 1 % q [31] $end
$var wire 1 & q [30] $end
$var wire 1 ' q [29] $end
$var wire 1 ( q [28] $end
$var wire 1 ) q [27] $end
$var wire 1 * q [26] $end
$var wire 1 + q [25] $end
$var wire 1 , q [24] $end
$var wire 1 - q [23] $end
$var wire 1 . q [22] $end
$var wire 1 / q [21] $end
$var wire 1 0 q [20] $end
$var wire 1 1 q [19] $end
$var wire 1 2 q [18] $end
$var wire 1 3 q [17] $end
$var wire 1 4 q [16] $end
$var wire 1 5 q [15] $end
$var wire 1 6 q [14] $end
$var wire 1 7 q [13] $end
$var wire 1 8 q [12] $end
$var wire 1 9 q [11] $end
$var wire 1 : q [10] $end
$var wire 1 ; q [9] $end
$var wire 1 < q [8] $end
$var wire 1 = q [7] $end
$var wire 1 > q [6] $end
$var wire 1 ? q [5] $end
$var wire 1 @ q [4] $end
$var wire 1 A q [3] $end
$var wire 1 B q [2] $end
$var wire 1 C q [1] $end
$var wire 1 D q [0] $end

$scope module i1 $end
$var wire 1 E gnd $end
$var wire 1 F vcc $end
$var wire 1 G unknown $end
$var tri1 1 H devclrn $end
$var tri1 1 I devpor $end
$var tri1 1 J devoe $end
$var wire 1 K q[0]~output_o $end
$var wire 1 L q[1]~output_o $end
$var wire 1 M q[2]~output_o $end
$var wire 1 N q[3]~output_o $end
$var wire 1 O q[4]~output_o $end
$var wire 1 P q[5]~output_o $end
$var wire 1 Q q[6]~output_o $end
$var wire 1 R q[7]~output_o $end
$var wire 1 S q[8]~output_o $end
$var wire 1 T q[9]~output_o $end
$var wire 1 U q[10]~output_o $end
$var wire 1 V q[11]~output_o $end
$var wire 1 W q[12]~output_o $end
$var wire 1 X q[13]~output_o $end
$var wire 1 Y q[14]~output_o $end
$var wire 1 Z q[15]~output_o $end
$var wire 1 [ q[16]~output_o $end
$var wire 1 \ q[17]~output_o $end
$var wire 1 ] q[18]~output_o $end
$var wire 1 ^ q[19]~output_o $end
$var wire 1 _ q[20]~output_o $end
$var wire 1 ` q[21]~output_o $end
$var wire 1 a q[22]~output_o $end
$var wire 1 b q[23]~output_o $end
$var wire 1 c q[24]~output_o $end
$var wire 1 d q[25]~output_o $end
$var wire 1 e q[26]~output_o $end
$var wire 1 f q[27]~output_o $end
$var wire 1 g q[28]~output_o $end
$var wire 1 h q[29]~output_o $end
$var wire 1 i q[30]~output_o $end
$var wire 1 j q[31]~output_o $end
$var wire 1 k clk~input_o $end
$var wire 1 l clk~inputclkctrl_outclk $end
$var wire 1 m d[0]~input_o $end
$var wire 1 n intialize[0].df|q~feeder_combout $end
$var wire 1 o clr~input_o $end
$var wire 1 p clr~inputclkctrl_outclk $end
$var wire 1 q en~input_o $end
$var wire 1 r intialize[0].df|q~q $end
$var wire 1 s d[1]~input_o $end
$var wire 1 t intialize[1].df|q~feeder_combout $end
$var wire 1 u intialize[1].df|q~q $end
$var wire 1 v d[2]~input_o $end
$var wire 1 w intialize[2].df|q~q $end
$var wire 1 x d[3]~input_o $end
$var wire 1 y intialize[3].df|q~q $end
$var wire 1 z d[4]~input_o $end
$var wire 1 { intialize[4].df|q~feeder_combout $end
$var wire 1 | intialize[4].df|q~q $end
$var wire 1 } d[5]~input_o $end
$var wire 1 ~ intialize[5].df|q~q $end
$var wire 1 !! d[6]~input_o $end
$var wire 1 "! intialize[6].df|q~feeder_combout $end
$var wire 1 #! intialize[6].df|q~q $end
$var wire 1 $! d[7]~input_o $end
$var wire 1 %! intialize[7].df|q~q $end
$var wire 1 &! d[8]~input_o $end
$var wire 1 '! intialize[8].df|q~feeder_combout $end
$var wire 1 (! intialize[8].df|q~q $end
$var wire 1 )! d[9]~input_o $end
$var wire 1 *! intialize[9].df|q~feeder_combout $end
$var wire 1 +! intialize[9].df|q~q $end
$var wire 1 ,! d[10]~input_o $end
$var wire 1 -! intialize[10].df|q~feeder_combout $end
$var wire 1 .! intialize[10].df|q~q $end
$var wire 1 /! d[11]~input_o $end
$var wire 1 0! intialize[11].df|q~feeder_combout $end
$var wire 1 1! intialize[11].df|q~q $end
$var wire 1 2! d[12]~input_o $end
$var wire 1 3! intialize[12].df|q~feeder_combout $end
$var wire 1 4! intialize[12].df|q~q $end
$var wire 1 5! d[13]~input_o $end
$var wire 1 6! intialize[13].df|q~feeder_combout $end
$var wire 1 7! intialize[13].df|q~q $end
$var wire 1 8! d[14]~input_o $end
$var wire 1 9! intialize[14].df|q~feeder_combout $end
$var wire 1 :! intialize[14].df|q~q $end
$var wire 1 ;! d[15]~input_o $end
$var wire 1 <! intialize[15].df|q~q $end
$var wire 1 =! d[16]~input_o $end
$var wire 1 >! intialize[16].df|q~feeder_combout $end
$var wire 1 ?! intialize[16].df|q~q $end
$var wire 1 @! d[17]~input_o $end
$var wire 1 A! intialize[17].df|q~feeder_combout $end
$var wire 1 B! intialize[17].df|q~q $end
$var wire 1 C! d[18]~input_o $end
$var wire 1 D! intialize[18].df|q~feeder_combout $end
$var wire 1 E! intialize[18].df|q~q $end
$var wire 1 F! d[19]~input_o $end
$var wire 1 G! intialize[19].df|q~feeder_combout $end
$var wire 1 H! intialize[19].df|q~q $end
$var wire 1 I! d[20]~input_o $end
$var wire 1 J! intialize[20].df|q~feeder_combout $end
$var wire 1 K! intialize[20].df|q~q $end
$var wire 1 L! d[21]~input_o $end
$var wire 1 M! intialize[21].df|q~feeder_combout $end
$var wire 1 N! intialize[21].df|q~q $end
$var wire 1 O! d[22]~input_o $end
$var wire 1 P! intialize[22].df|q~feeder_combout $end
$var wire 1 Q! intialize[22].df|q~q $end
$var wire 1 R! d[23]~input_o $end
$var wire 1 S! intialize[23].df|q~feeder_combout $end
$var wire 1 T! intialize[23].df|q~q $end
$var wire 1 U! d[24]~input_o $end
$var wire 1 V! intialize[24].df|q~feeder_combout $end
$var wire 1 W! intialize[24].df|q~q $end
$var wire 1 X! d[25]~input_o $end
$var wire 1 Y! intialize[25].df|q~feeder_combout $end
$var wire 1 Z! intialize[25].df|q~q $end
$var wire 1 [! d[26]~input_o $end
$var wire 1 \! intialize[26].df|q~feeder_combout $end
$var wire 1 ]! intialize[26].df|q~q $end
$var wire 1 ^! d[27]~input_o $end
$var wire 1 _! intialize[27].df|q~feeder_combout $end
$var wire 1 `! intialize[27].df|q~q $end
$var wire 1 a! d[28]~input_o $end
$var wire 1 b! intialize[28].df|q~q $end
$var wire 1 c! d[29]~input_o $end
$var wire 1 d! intialize[29].df|q~feeder_combout $end
$var wire 1 e! intialize[29].df|q~q $end
$var wire 1 f! d[30]~input_o $end
$var wire 1 g! intialize[30].df|q~feeder_combout $end
$var wire 1 h! intialize[30].df|q~q $end
$var wire 1 i! d[31]~input_o $end
$var wire 1 j! intialize[31].df|q~q $end
$upscope $end
$upscope $end
$enddefinitions $end
#0
$dumpvars
0!
0"
b0 #
0$
0D
0C
0B
0A
0@
0?
0>
0=
0<
0;
0:
09
08
07
06
05
04
03
02
01
00
0/
0.
0-
0,
0+
0*
0)
0(
0'
0&
0%
0E
1F
xG
1H
1I
1J
0K
0L
0M
0N
0O
0P
0Q
0R
0S
0T
0U
0V
0W
0X
0Y
0Z
0[
0\
0]
0^
0_
0`
0a
0b
0c
0d
0e
0f
0g
0h
0i
0j
0k
0l
0m
0n
0o
0p
0q
0r
0s
0t
0u
0v
0w
0x
0y
0z
0{
0|
0}
0~
0!!
0"!
0#!
0$!
0%!
0&!
0'!
0(!
0)!
0*!
0+!
0,!
0-!
0.!
0/!
00!
01!
02!
03!
04!
05!
06!
07!
08!
09!
0:!
0;!
0<!
0=!
0>!
0?!
0@!
0A!
0B!
0C!
0D!
0E!
0F!
0G!
0H!
0I!
0J!
0K!
0L!
0M!
0N!
0O!
0P!
0Q!
0R!
0S!
0T!
0U!
0V!
0W!
0X!
0Y!
0Z!
0[!
0\!
0]!
0^!
0_!
0`!
0a!
0b!
0c!
0d!
0e!
0f!
0g!
0h!
0i!
0j!
$end
#15000
1$
1q
#25000
1!
1k
1l
#30000
0$
0q
#45000
1$
1q
#50000
0!
0k
0l
#60000
0$
0q
#70000
b1 #
1m
1n
#75000
1!
1$
1k
1q
1l
1r
1K
1D
#90000
0$
0q
#100000
0!
0k
0l
#105000
1$
1q
#120000
0$
0q
#125000
1!
1k
1l
#135000
1$
1q
#140000
b11 #
b10 #
0m
1s
0n
1t
#150000
0!
0$
0k
0q
0l
#165000
1$
1q
#175000
1!
1k
1l
1u
0r
0K
1L
1C
0D
#180000
0$
0q
#195000
1$
1q
#200000
0!
0k
0l
#210000
b11 #
0$
1m
0q
1n
#225000
1!
1$
1k
1q
1l
1r
1K
1D
#240000
0$
0q
#250000
0!
0k
0l
#255000
1$
1q
#270000
0$
0q
#275000
1!
1k
1l
#280000
b111 #
b101 #
b100 #
0m
0s
1v
0n
0t
#285000
1$
1q
#300000
0!
0$
0k
0q
0l
#315000
1$
1q
#325000
1!
1k
1l
1w
0u
0r
0K
0L
1M
1B
0C
0D
#330000
0$
0q
#345000
1$
1q
#350000
b101 #
0!
1m
0k
0l
1n
#360000
0$
0q
#375000
1!
1$
1k
1q
1l
1r
1K
1D
#390000
0$
0q
#400000
0!
0k
0l
#405000
1$
1q
#420000
b111 #
b110 #
0$
0m
1s
0q
0n
1t
#425000
1!
1k
1l
#435000
1$
1q
#450000
0!
0$
0k
0q
0l
#465000
1$
1q
#475000
1!
1k
1l
1u
0r
0K
1L
1C
0D
#480000
0$
0q
#490000
b111 #
1m
1n
#495000
1$
1q
#500000
0!
0k
0l
#510000
0$
0q
#525000
1!
1$
1k
1q
1l
1r
1K
1D
#540000
0$
0q
#550000
0!
0k
0l
#555000
1$
1q
#560000
b1111 #
b1011 #
b1001 #
b1000 #
0m
0s
0v
1x
0n
0t
#570000
0$
0q
#575000
1!
1k
1l
#585000
1$
1q
#600000
0!
0$
0k
0q
0l
#615000
1$
1q
#625000
1!
1k
1l
1y
0w
0u
0r
0K
0L
0M
1N
1A
0B
0C
0D
#630000
b1001 #
0$
1m
0q
1n
#645000
1$
1q
#650000
0!
0k
0l
#660000
0$
0q
#675000
1!
1$
1k
1q
1l
1r
1K
1D
#690000
0$
0q
#700000
b1011 #
b1010 #
0!
0m
1s
0k
0l
0n
1t
#705000
1$
1q
#720000
0$
0q
#725000
1!
1k
1l
#735000
1$
1q
#750000
0!
0$
0k
0q
0l
#765000
1$
1q
#770000
b1011 #
1m
1n
#775000
1!
1k
1l
1u
1L
1C
#780000
0$
0q
#795000
1$
1q
#800000
0!
0k
0l
#810000
0$
0q
#825000
1!
1$
1k
1q
1l
#840000
b1111 #
b1101 #
b1100 #
0$
0m
0s
1v
0q
0n
0t
#850000
0!
0k
0l
#855000
1$
1q
#870000
0$
0q
#875000
1!
1k
1l
#885000
1$
1q
#900000
0!
0$
0k
0q
0l
#910000
b1101 #
1m
1n
#915000
1$
1q
#925000
1!
1k
1l
1w
0u
0L
1M
1B
0C
#930000
0$
0q
#945000
1$
1q
#950000
0!
0k
0l
#960000
0$
0q
#975000
1!
1$
1k
1q
1l
#980000
b1111 #
b1110 #
0m
1s
0n
1t
#990000
0$
0q
